…
### Get the databases

``` r
x <- pt_read_db(.progress = FALSE)

x
```

    ## # A tibble: 32,384 x 9
    ##    phish_id url               phish_detail_url   submission_time     verified verification_time   online details target
    ##  * <chr>    <chr>             <chr>              <dttm>              <chr>    <dttm>              <chr>  <list>  <chr> 
    ##  1 5616132  http://maiscredi… http://www.phisht… 2018-05-06 12:22:54 yes      2018-05-06 12:24:36 yes    <data.… Other 
    ##  2 5616116  https://casasbha… http://www.phisht… 2018-05-06 11:59:51 yes      2018-05-06 12:00:29 yes    <data.… Other 
    ##  3 5616101  http://casasbaia… http://www.phisht… 2018-05-06 11:38:27 yes      2018-05-06 11:39:15 yes    <data.… Other 
    ##  4 5616089  http://qemahost.… http://www.phisht… 2018-05-06 10:41:47 yes      2018-05-06 11:27:07 yes    <data.… Other 
    ##  5 5616085  http://matematic… http://www.phisht… 2018-05-06 10:41:23 yes      2018-05-06 11:25:29 yes    <data.… Other 
    ##  6 5616072  http://www.realt… http://www.phisht… 2018-05-06 10:40:40 yes      2018-05-06 11:30:09 yes    <data.… Other 
    ##  7 5616070  https://siensafr… http://www.phisht… 2018-05-06 10:40:30 yes      2018-05-06 11:31:43 yes    <data.… Other 
    ##  8 5616069  http://siensafri… http://www.phisht… 2018-05-06 10:40:29 yes      2018-05-06 11:27:07 yes    <data.… Other 
    ##  9 5616067  http://realtypro… http://www.phisht… 2018-05-06 10:40:25 yes      2018-05-06 11:27:07 yes    <data.… Other 
    ## 10 5616060  http://catclaw.b… http://www.phisht… 2018-05-06 10:00:06 yes      2018-05-06 10:51:36 yes    <data.… Other 
    ## # ... with 32,374 more rows
…
